{
  "name": "mcqapp",
  "version": "0.1.0",
  "private": true,
  "dependencies": {
    "express": "^4.16.4",
    "express-favicon": "^2.0.1",
    "immer": "^2.0.0",
    "node-sass": "^4.11.0",
    "path": "^0.12.7",
    "react": "^16.8.1",
    "react-dom": "^16.8.1",
    "react-redux": "^6.0.0",
    "react-scripts": "2.1.4",
    "redux": "^4.0.1"
  },
  "scripts": {
    "start": "react-scripts start",
    "build": "react-scripts build",
    "test": "react-scripts test",
    "eject": "react-scripts eject"
  },
  "eslintConfig": {
    "extends": "react-app"
  },
  "browserslist": [
    ">0.2%",
    "not dead",
    "not ie <= 11",
    "not op_mini all"
  ]
}
